{
  "project_info": {
    "project_number": "90623131496",
    "firebase_url": "https://tradebea-user-1606248743552.firebaseio.com",
    "project_id": "tradebea-user-1606248743552",
    "storage_bucket": "tradebea-user-1606248743552.appspot.com"
  },
  "client": [
    {
      "client_info": {
        "mobilesdk_app_id": "1:90623131496:android:b411b71bb2873536fbe0dd",
        "android_client_info": {
          "package_name": "com.tradebeauser"
        }
      },
      "oauth_client": [
        {
          "client_id": "90623131496-94dq83mtf307flo64423i78kqcb8fpmj.apps.googleusercontent.com",
          "client_type": 3
        }
      ],
      "api_key": [
        {
          "current_key": "AIzaSyC639N4LU8-oRVmrRQOXYFlLFa3hhrDgWE"
        }
      ],
      "services": {
        "appinvite_service": {
          "other_platform_oauth_client": [
            {
              "client_id": "90623131496-94dq83mtf307flo64423i78kqcb8fpmj.apps.googleusercontent.com",
              "client_type": 3
            }
          ]
        }
      }
    }
  ],
  "configuration_version": "1"
}